<?xml version="1.0" encoding="UTF-8" standalone="no"?>
<!DOCTYPE svg PUBLIC "-//W3C//DTD SVG 1.1//EN"
 "http://www.w3.org/Graphics/SVG/1.1/DTD/svg11.dtd">
<!-- Generated by graphviz version 2.45.20200621.0824 (20200621.0824)
 -->
<!-- Title: G Pages: 1 -->
<svg width="1037pt" height="293pt"
 viewBox="0.00 0.00 1037.00 293.28" xmlns="http://www.w3.org/2000/svg" xmlns:xlink="http://www.w3.org/1999/xlink">
<g id="graph0" class="graph" transform="scale(1 1) rotate(0) translate(4 289.28)">
<title>G</title>
<polygon fill="white" stroke="transparent" points="-4,4 -4,-289.28 1033,-289.28 1033,4 -4,4"/>
<g id="clust1" class="cluster">
<title>cluster_1</title>
<polygon fill="none" stroke="black" points="60,-152.49 60,-277.28 971,-277.28 971,-152.49 60,-152.49"/>
<text text-anchor="middle" x="515.5" y="-262.08" font-family="Times,serif" font-size="14.00">Linear Angle Variations (white to black gradient)</text>
</g>
<g id="clust2" class="cluster">
<title>cluster_2</title>
<polygon fill="none" stroke="black" points="8,-8 8,-144.49 1021,-144.49 1021,-8 8,-8"/>
<text text-anchor="middle" x="514.5" y="-129.29" font-family="Times,serif" font-size="14.00">Radial Angle Variations (white to black gradient)</text>
</g>
<!-- n9 -->
<g id="node1" class="node">
<title>n9</title>
<defs>
<linearGradient id="l_0" gradientUnits="userSpaceOnUse" x1="877.21" y1="-203.39" x2="962.79" y2="-203.39" >
<stop offset="0" style="stop-color:white;stop-opacity:1.;"/>
<stop offset="1" style="stop-color:black;stop-opacity:1.;"/>
</linearGradient>
</defs>
<ellipse fill="url(#l_0)" stroke="black" cx="920" cy="-203.39" rx="42.79" ry="42.79"/>
<text text-anchor="middle" x="920" y="-199.69" font-family="Times,serif" font-size="14.00">n9:360</text>
</g>
<!-- n8 -->
<g id="node2" class="node">
<title>n8</title>
<defs>
<linearGradient id="l_1" gradientUnits="userSpaceOnUse" x1="785.74" y1="-233.65" x2="846.26" y2="-173.13" >
<stop offset="0" style="stop-color:white;stop-opacity:1.;"/>
<stop offset="1" style="stop-color:black;stop-opacity:1.;"/>
</linearGradient>
</defs>
<ellipse fill="url(#l_1)" stroke="black" cx="816" cy="-203.39" rx="42.79" ry="42.79"/>
<text text-anchor="middle" x="816" y="-199.69" font-family="Times,serif" font-size="14.00">n8:315</text>
</g>
<!-- n7 -->
<g id="node3" class="node">
<title>n7</title>
<defs>
<linearGradient id="l_2" gradientUnits="userSpaceOnUse" x1="712" y1="-246.18" x2="712" y2="-160.59" >
<stop offset="0" style="stop-color:white;stop-opacity:1.;"/>
<stop offset="1" style="stop-color:black;stop-opacity:1.;"/>
</linearGradient>
</defs>
<ellipse fill="url(#l_2)" stroke="black" cx="712" cy="-203.39" rx="42.79" ry="42.79"/>
<text text-anchor="middle" x="712" y="-199.69" font-family="Times,serif" font-size="14.00">n7:270</text>
</g>
<!-- n6 -->
<g id="node4" class="node">
<title>n6</title>
<defs>
<linearGradient id="l_3" gradientUnits="userSpaceOnUse" x1="638.26" y1="-233.65" x2="577.74" y2="-173.13" >
<stop offset="0" style="stop-color:white;stop-opacity:1.;"/>
<stop offset="1" style="stop-color:black;stop-opacity:1.;"/>
</linearGradient>
</defs>
<ellipse fill="url(#l_3)" stroke="black" cx="608" cy="-203.39" rx="42.79" ry="42.79"/>
<text text-anchor="middle" x="608" y="-199.69" font-family="Times,serif" font-size="14.00">n6:225</text>
</g>
<!-- n5 -->
<g id="node5" class="node">
<title>n5</title>
<defs>
<linearGradient id="l_4" gradientUnits="userSpaceOnUse" x1="546.79" y1="-203.39" x2="461.21" y2="-203.39" >
<stop offset="0" style="stop-color:white;stop-opacity:1.;"/>
<stop offset="1" style="stop-color:black;stop-opacity:1.;"/>
</linearGradient>
</defs>
<ellipse fill="url(#l_4)" stroke="black" cx="504" cy="-203.39" rx="42.79" ry="42.79"/>
<text text-anchor="middle" x="504" y="-199.69" font-family="Times,serif" font-size="14.00">n5:180</text>
</g>
<!-- n14 -->
<g id="node14" class="node">
<title>n14</title>
<defs>
<radialGradient id="r_0" cx="50%" cy="50%" r="75%" fx="0%" fy="50%">
<stop offset="0" style="stop-color:white;stop-opacity:1.;"/>
<stop offset="1" style="stop-color:black;stop-opacity:1.;"/>
</radialGradient>
</defs>
<ellipse fill="url(#r_0)" stroke="black" cx="504" cy="-64.75" rx="48.99" ry="48.99"/>
<text text-anchor="middle" x="504" y="-61.05" font-family="Times,serif" font-size="14.00">n14:180</text>
</g>
<!-- n5&#45;&gt;n14 -->
<g id="edge1" class="edge">
<title>n5&#45;&gt;n14</title>
<path fill="none" stroke="black" d="M504,-160.28C504,-148.76 504,-136.07 504,-123.83"/>
<polygon fill="black" stroke="black" points="507.5,-123.69 504,-113.69 500.5,-123.69 507.5,-123.69"/>
</g>
<!-- n4 -->
<g id="node6" class="node">
<title>n4</title>
<defs>
<linearGradient id="l_5" gradientUnits="userSpaceOnUse" x1="430.26" y1="-173.13" x2="369.74" y2="-233.65" >
<stop offset="0" style="stop-color:white;stop-opacity:1.;"/>
<stop offset="1" style="stop-color:black;stop-opacity:1.;"/>
</linearGradient>
</defs>
<ellipse fill="url(#l_5)" stroke="black" cx="400" cy="-203.39" rx="42.79" ry="42.79"/>
<text text-anchor="middle" x="400" y="-199.69" font-family="Times,serif" font-size="14.00">n4:135</text>
</g>
<!-- n3 -->
<g id="node7" class="node">
<title>n3</title>
<defs>
<linearGradient id="l_6" gradientUnits="userSpaceOnUse" x1="299" y1="-163.29" x2="299" y2="-243.48" >
<stop offset="0" style="stop-color:white;stop-opacity:1.;"/>
<stop offset="1" style="stop-color:black;stop-opacity:1.;"/>
</linearGradient>
</defs>
<ellipse fill="url(#l_6)" stroke="black" cx="299" cy="-203.39" rx="40.09" ry="40.09"/>
<text text-anchor="middle" x="299" y="-199.69" font-family="Times,serif" font-size="14.00">n3:90 </text>
</g>
<!-- n2 -->
<g id="node8" class="node">
<title>n2</title>
<defs>
<linearGradient id="l_7" gradientUnits="userSpaceOnUse" x1="171.65" y1="-175.04" x2="228.35" y2="-231.74" >
<stop offset="0" style="stop-color:white;stop-opacity:1.;"/>
<stop offset="1" style="stop-color:black;stop-opacity:1.;"/>
</linearGradient>
</defs>
<ellipse fill="url(#l_7)" stroke="black" cx="200" cy="-203.39" rx="40.09" ry="40.09"/>
<text text-anchor="middle" x="200" y="-199.69" font-family="Times,serif" font-size="14.00">n2:45 </text>
</g>
<!-- n1 -->
<g id="node9" class="node">
<title>n1</title>
<defs>
<linearGradient id="l_8" gradientUnits="userSpaceOnUse" x1="67.91" y1="-203.39" x2="142.09" y2="-203.39" >
<stop offset="0" style="stop-color:white;stop-opacity:1.;"/>
<stop offset="1" style="stop-color:black;stop-opacity:1.;"/>
</linearGradient>
</defs>
<ellipse fill="url(#l_8)" stroke="black" cx="105" cy="-203.39" rx="37.09" ry="37.09"/>
<text text-anchor="middle" x="105" y="-199.69" font-family="Times,serif" font-size="14.00">n1:0 &#160;</text>
</g>
<!-- n18 -->
<g id="node10" class="node">
<title>n18</title>
<defs>
<radialGradient id="r_1" cx="50%" cy="50%" r="75%" fx="99%" fy="49%">
<stop offset="0" style="stop-color:white;stop-opacity:1.;"/>
<stop offset="1" style="stop-color:black;stop-opacity:1.;"/>
</radialGradient>
</defs>
<ellipse fill="url(#r_1)" stroke="black" cx="964" cy="-64.75" rx="48.99" ry="48.99"/>
<text text-anchor="middle" x="964" y="-61.05" font-family="Times,serif" font-size="14.00">n18:360</text>
</g>
<!-- n17 -->
<g id="node11" class="node">
<title>n17</title>
<defs>
<radialGradient id="r_2" cx="50%" cy="50%" r="75%" fx="85%" fy="85%">
<stop offset="0" style="stop-color:white;stop-opacity:1.;"/>
<stop offset="1" style="stop-color:black;stop-opacity:1.;"/>
</radialGradient>
</defs>
<ellipse fill="url(#r_2)" stroke="black" cx="849" cy="-64.75" rx="48.99" ry="48.99"/>
<text text-anchor="middle" x="849" y="-61.05" font-family="Times,serif" font-size="14.00">n17:315</text>
</g>
<!-- n16 -->
<g id="node12" class="node">
<title>n16</title>
<defs>
<radialGradient id="r_3" cx="50%" cy="50%" r="75%" fx="50%" fy="100%">
<stop offset="0" style="stop-color:white;stop-opacity:1.;"/>
<stop offset="1" style="stop-color:black;stop-opacity:1.;"/>
</radialGradient>
</defs>
<ellipse fill="url(#r_3)" stroke="black" cx="734" cy="-64.75" rx="48.99" ry="48.99"/>
<text text-anchor="middle" x="734" y="-61.05" font-family="Times,serif" font-size="14.00">n16:270</text>
</g>
<!-- n15 -->
<g id="node13" class="node">
<title>n15</title>
<defs>
<radialGradient id="r_4" cx="50%" cy="50%" r="75%" fx="14%" fy="85%">
<stop offset="0" style="stop-color:white;stop-opacity:1.;"/>
<stop offset="1" style="stop-color:black;stop-opacity:1.;"/>
</radialGradient>
</defs>
<ellipse fill="url(#r_4)" stroke="black" cx="619" cy="-64.75" rx="48.99" ry="48.99"/>
<text text-anchor="middle" x="619" y="-61.05" font-family="Times,serif" font-size="14.00">n15:225</text>
</g>
<!-- n13 -->
<g id="node15" class="node">
<title>n13</title>
<defs>
<radialGradient id="r_5" cx="50%" cy="50%" r="75%" fx="14%" fy="14%">
<stop offset="0" style="stop-color:white;stop-opacity:1.;"/>
<stop offset="1" style="stop-color:black;stop-opacity:1.;"/>
</radialGradient>
</defs>
<ellipse fill="url(#r_5)" stroke="black" cx="389" cy="-64.75" rx="48.99" ry="48.99"/>
<text text-anchor="middle" x="389" y="-61.05" font-family="Times,serif" font-size="14.00">n13:135</text>
</g>
<!-- n12 -->
<g id="node16" class="node">
<title>n12</title>
<defs>
<radialGradient id="r_6" cx="50%" cy="50%" r="75%" fx="49%" fy="0%">
<stop offset="0" style="stop-color:white;stop-opacity:1.;"/>
<stop offset="1" style="stop-color:black;stop-opacity:1.;"/>
</radialGradient>
</defs>
<ellipse fill="url(#r_6)" stroke="black" cx="276" cy="-64.75" rx="46.29" ry="46.29"/>
<text text-anchor="middle" x="276" y="-61.05" font-family="Times,serif" font-size="14.00">n12:90 </text>
</g>
<!-- n11 -->
<g id="node17" class="node">
<title>n11</title>
<defs>
<radialGradient id="r_7" cx="50%" cy="50%" r="75%" fx="85%" fy="14%">
<stop offset="0" style="stop-color:white;stop-opacity:1.;"/>
<stop offset="1" style="stop-color:black;stop-opacity:1.;"/>
</radialGradient>
</defs>
<ellipse fill="url(#r_7)" stroke="black" cx="166" cy="-64.75" rx="46.29" ry="46.29"/>
<text text-anchor="middle" x="166" y="-61.05" font-family="Times,serif" font-size="14.00">n11:45 </text>
</g>
<!-- n10 -->
<g id="node18" class="node">
<title>n10</title>
<defs>
<radialGradient id="r_8" cx="50%" cy="50%" r="75%" fx="50%" fy="50%">
<stop offset="0" style="stop-color:white;stop-opacity:1.;"/>
<stop offset="1" style="stop-color:black;stop-opacity:1.;"/>
</radialGradient>
</defs>
<ellipse fill="url(#r_8)" stroke="black" cx="59" cy="-64.75" rx="42.79" ry="42.79"/>
<text text-anchor="middle" x="59" y="-61.05" font-family="Times,serif" font-size="14.00">n10:0 &#160;</text>
</g>
</g>
</svg>
